Landmark-based Approaches to Archaeological Science
…
With our Procrustes-alligned coordinates we can now examine shape variance among all examples, and between-group shape variance (for period and classification).

To examine the main sources of shape variation we will first perform a Principal Component Analysis (please refer to the first workshop for a detailed explanation of PCA). This procedure will allow us to understand the main sources of variation within our data, and how our groups (classification and date) map onto this morphospace. We can also begin to understand how much each source of variation contributes to the overall variation within a dataset.

Our landmark coefficients first need to be of class ‘PCA’. We will therefore use the Momocs::PCA() function (using base::prcomp()). As our factors are embedded within the procrustes coordinates (as we linked them at the beginning) we do not need to add them here. The code goes as follows:

pca_tutuli <- PCA(gpa_tutuli)

Technical note: scaling and centering are TRUE by default (however this can be changed through the scale and center arguments).

With the PCA object we can assess the contribution of each source of shape variation through a scree table and scree plot using the Momocs::scree() and Momocs::scree_plot() arguments.

scree(pca_tutuli)

## # A tibble: 56 x 3
##     axis proportion cumsum
##    <int>      <dbl>  <dbl>
##  1     1    0.688    0.688
##  2     2    0.155    0.843
##  3     3    0.0528   0.896
##  4     4    0.0341   0.930
##  5     5    0.0191   0.949
##  6     6    0.0153   0.964
##  7     7    0.0107   0.975
##  8     8    0.00721  0.982
##  9     9    0.00430  0.986
## 10    10    0.00256  0.989
## # ... with 46 more rows
…
