Archaeological Geometric Morphometrics and R／考古学における幾何形体測定学とR
…
Central to Momocs are a specific suite of shape classes for: 1) outlines (OutCoo), open outlines (OpnCoo) and landmarks (LdkCoo), with often one class specific to your own dataset. While some operations in Momocs are generic and do not depend on one of these classes, many functions require your data to be one of these specific ‘S3 objects’. In this instance our tps data is comprised of outlines, and so we wish for our data to be OutCoo, as to enable efourier (elliptic Fourier) analyses. Other analyses including rfourier (radii Fourier) or tfourier (tangent angle Fourier) analyses can be conducted through this process but for this workshop we’re only going consider elliptic Fourier analysis (EFA). 

Momocsパッケージの中心となるのは，特定の「かたち」のクラスです．それらは，(閉じた)アウトライン (OutCoo)，閉じていない(開いた)アウトライン (OpenCoo)と ランドマーク (LdkCoo) で，多くの場合，データセットはひとつのクラスで構成されています．Momocsの機能のいくつかは，（ジェネリックな関数なので）「かたち」データのクラスに依拠せず実行できますが，多くの関数は「S3オブジェクト」として特定のクラスに対して実行することになります．ここでは，tpsデータはアウトラインなので，楕円フーリエ(efourier)分析を行なうための OutCoo として扱います．そのほかの半径フーリエ(rfourier)分析や，タンジェント・フーリエ(tfourier)分析も同じ手順で実施できますが，ここでは楕円フーリエ分析(EFA)のみを取り扱います．

Through this lens, the coordinate data (coo) must therefore be turned into outline data through the Momocs::Out() function for the workflow to work. Once performed, we can then enter the object (here titled ‘shape’) and examine its properties. 

この「レンズ」を通して，今回のワークフローに即してMomocs::Out() 関数により座標データ(coo)はアウトラインデータに変換されます．これを実行すると，’shape’と命名したオブジェクトにアウトラインデータが格納され，その属性(プロパティ)を分析できるようになります．

shape <- Out(tpsdata$coo, fac = database) # incorporating our database as our factors／tps座標データをアウトラインに変換し，データベースの因子型データArchaeological_unitとともにshapeに格納  
shape # call the object／オブジェクトの呼び出し

## Out (outlines)
##   - 250 outlines, 1543 +/- 1370 coords (in $coo)
##   - 10 classifiers (in $fac): 
## # A tibble: 250 x 10
##      ID Site  Context Longitude Latitude Country Archaeological_~ File_Name
##   <dbl> <chr> <chr>       <dbl>    <dbl> <chr>   <fct>            <chr>    
## 1     1 Balt~ Baltaš~      24.0     54.0 Lithua~ Baltic Magdalen~ Bal.1    
## 2     2 Baro~ Barouka      30.3     53.5 Belarus Grensk           Bor.1    
## 3     3 Baro~ Barouka      30.3     53.5 Belarus Grensk           Bor.3    
## 4     4 Baro~ Barouka      30.3     53.5 Belarus Grensk           Bor.4    
## 5     5 Baro~ Barouka      30.3     53.5 Belarus Grensk           Bor.5    
## 6     6 Baro~ Barouka      30.3     53.5 Belarus Grensk           Bor.6    
## # ... with 244 more rows, and 2 more variables: Reference <chr>, Notes <chr>
##   - also: $ldk
…
We can see through this function that Principal Component 1 (PC1), i.e. the main source of shape variation among the tanged points, range from thin tanged points to wider-tanged examples, and that Principal Component 2 (PC2), i.e. the second main source of shape variation, extends from left-exaggerated tangs to right-exaggerated tangs. This function can be set to display as many sources of shape variation as required by the researcher. 

この関数の実施により，第1主成分軸(PC1)，つまり剥片尖頭器の「かたち」の変異の主な要素を，細いもの(SDマイナス側)から幅広いもの(同プラス側) へという変化として，また「かたち」の変異の2番目に主要な要素としてのPC2を，左に凸から右に凸な基部(茎部)への変化として理解することができます．この関数は，必要な限りいくつでも「かたち」の変異の要素を示すことができます(nax=1:xのxを大きくする)．

While we can observe the main changes in artefact shape, at present we are unsure how much variation these components account for. Using the Momocs::Scree() function we can find out that PC1 accounts for 57.7% of all shape variation, and that the first two axes account for 74.1% (almost three quarters of all shape variation within our dataset). 95% of all shape variation can be accounted for in the first ten principal components (an observation we will come back to afterwards). 

このように資料の「かたち」の主要な変化を観察することができますが，この時点では，これらの変異がどれだけ資料の組み合わせ全体を説明しているか定かではありません．そこで Momocs::Scree() 関数を使用することで，PC1が全ての「かたち」の変異の57.7%を説明し，またPC1+PC2が74.1%，すなわちデータセット全体の3/4を説明することを確認できます．そしてPC1～PC10により，全体の95%が説明されます．この点については，のちにまた触れます．

scree(pcashape)  #pcashapeの各主成分軸の寄与度を計算  

## # A tibble: 44 x 3
##     axis proportion cumsum
##    <int>      <dbl>  <dbl>
##  1     1    0.577    0.577
##  2     2    0.164    0.741
##  3     3    0.0806   0.821
##  4     4    0.0319   0.853
##  5     5    0.0307   0.884
##  6     6    0.0251   0.909
##  7     7    0.0195   0.929
##  8     8    0.0106   0.939
##  9     9    0.00918  0.948
## 10    10    0.00719  0.956
## # ... with 34 more rows
…
